<svg xmlns="http://www.w3.org/2000/svg" width="24" height="16.469" viewBox="0 0 24 16.469">
    <path id="picture" fill="#fff" d="M23.3 80.333H.7a.7.7 0 0 0-.7.7V96.1a.7.7 0 0 0 .7.7h22.6a.7.7 0 0 0 .7-.7V81.036a.7.7 0 0 0-.7-.703zM2.4 95.4l7.34-7.34 3.524 3.524L9.449 95.4zm9.038 0l5.081-5.081L21.6 95.4zm11.156-1l-5.578-5.578a.7.7 0 0 0-.994 0l-1.762 1.762-4.022-4.022a.7.7 0 0 0-.994 0L1.406 94.4V81.739h21.188z" transform="translate(0 -80.333)"/>
</svg>
